Start
Iteration=config id: 1, warmUp: 200, actorLayers: 2, bestReward:-25.037935130443568
Iteration=config id: 2, warmUp: 500, actorLayers: 2, bestReward:-128.011543438044
Iteration=config id: 3, warmUp: 100, actorLayers: 3, bestReward:-38.65584059347485
Iteration=config id: 4, warmUp: 200, actorLayers: 3, bestReward:-79.13395551559087
Iteration=config id: 5, warmUp: 500, actorLayers: 3, bestReward:-123.26317469200714
Iteration=config id: 6, warmUp: 100, actorLayers: 2, bestReward:-251
Iteration=config id: 7, warmUp: 200, actorLayers: 2, bestReward:-169.49491010865722
Iteration=config id: 8, warmUp: 500, actorLayers: 2, bestReward:-96.88193996074811
Iteration=config id: 9, warmUp: 100, actorLayers: 3, bestReward:-128.8562757045392
